ula_tb.vcd
$date
	Wed Nov 05 11:02:20 2025
$end
$version
	Icarus Verilog
$end
$timescale
	1ps
$end
$scope module ula_tb $end
$var wire 8 ! S [7:0] $end
$var reg 8 " A [7:0] $end
$var reg 8 # B [7:0] $end
$var reg 1 $ ck $end
$var reg 3 % opcode [2:0] $end
$scope module uut $end
$var wire 8 & A [7:0] $end
$var wire 8 ' B [7:0] $end
$var wire 1 $ ck $end
$var wire 3 ( opcode [2:0] $end
$var wire 8 ) out_tristate [7:0] $end
$var wire 1 * overflow $end
$var wire 8 + regB [7:0] $end
$var wire 8 , regA [7:0] $end
$var wire 8 - out_subtrator [7:0] $end
$var wire 8 . out_somador [7:0] $end
$var wire 8 / out_menor [7:0] $end
$var wire 8 0 out_maior [7:0] $end
$var wire 8 1 out_inversorB [7:0] $end
$var wire 8 2 out_inversorA [7:0] $end
$var wire 8 3 out_igual [7:0] $end
$var wire 8 4 out_diferente [7:0] $end
$var wire 8 5 out_decoder [7:0] $end
$var wire 8 6 S [7:0] $end
$scope module r0 $end
$var wire 1 $ clk $end
$var wire 8 7 d [7:0] $end
$var wire 8 8 q [7:0] $end
$var parameter 32 9 N $end
$scope begin d_flip_flop[0] $end
$var parameter 2 : i $end
$scope module ff $end
$var wire 1 $ clk $end
$var wire 1 ; d $end
$var reg 1 < q $end
$upscope $end
$upscope $end
$scope begin d_flip_flop[1] $end
$var parameter 2 = i $end
$scope module ff $end
$var wire 1 $ clk $end
$var wire 1 > d $end
$var reg 1 ? q $end
$upscope $end
$upscope $end
$scope begin d_flip_flop[2] $end
$var parameter 3 @ i $end
$scope module ff $end
$var wire 1 $ clk $end
$var wire 1 A d $end
$var reg 1 B q $end
$upscope $end
$upscope $end
$scope begin d_flip_flop[3] $end
$var parameter 3 C i $end
$scope module ff $end
$var wire 1 $ clk $end
$var wire 1 D d $end
$var reg 1 E q $end
$upscope $end
$upscope $end
$scope begin d_flip_flop[4] $end
$var parameter 4 F i $end
$scope module ff $end
$var wire 1 $ clk $end
$var wire 1 G d $end
$var reg 1 H q $end
$upscope $end
$upscope $end
$scope begin d_flip_flop[5] $end
$var parameter 4 I i $end
$scope module ff $end
$var wire 1 $ clk $end
$var wire 1 J d $end
$var reg 1 K q $end
$upscope $end
$upscope $end
$scope begin d_flip_flop[6] $end
$var parameter 4 L i $end
$scope module ff $end
$var wire 1 $ clk $end
$var wire 1 M d $end
$var reg 1 N q $end
$upscope $end
$upscope $end
$scope begin d_flip_flop[7] $end
$var parameter 4 O i $end
$scope module ff $end
$var wire 1 $ clk $end
$var wire 1 P d $end
$var reg 1 Q q $end
$upscope $end
$upscope $end
$upscope $end
$scope module r1 $end
$var wire 1 $ clk $end
$var wire 8 R d [7:0] $end
$var wire 8 S q [7:0] $end
$var parameter 32 T N $end
$scope begin d_flip_flop[0] $end
$var parameter 2 U i $end
$scope module ff $end
$var wire 1 $ clk $end
$var wire 1 V d $end
$var reg 1 W q $end
$upscope $end
$upscope $end
$scope begin d_flip_flop[1] $end
$var parameter 2 X i $end
$scope module ff $end
$var wire 1 $ clk $end
$var wire 1 Y d $end
$var reg 1 Z q $end
$upscope $end
$upscope $end
$scope begin d_flip_flop[2] $end
$var parameter 3 [ i $end
$scope module ff $end
$var wire 1 $ clk $end
$var wire 1 \ d $end
$var reg 1 ] q $end
$upscope $end
$upscope $end
$scope begin d_flip_flop[3] $end
$var parameter 3 ^ i $end
$scope module ff $end
$var wire 1 $ clk $end
$var wire 1 _ d $end
$var reg 1 ` q $end
$upscope $end
$upscope $end
$scope begin d_flip_flop[4] $end
$var parameter 4 a i $end
$scope module ff $end
$var wire 1 $ clk $end
$var wire 1 b d $end
$var reg 1 c q $end
$upscope $end
$upscope $end
$scope begin d_flip_flop[5] $end
$var parameter 4 d i $end
$scope module ff $end
$var wire 1 $ clk $end
$var wire 1 e d $end
$var reg 1 f q $end
$upscope $end
$upscope $end
$scope begin d_flip_flop[6] $end
$var parameter 4 g i $end
$scope module ff $end
$var wire 1 $ clk $end
$var wire 1 h d $end
$var reg 1 i q $end
$upscope $end
$upscope $end
$scope begin d_flip_flop[7] $end
$var parameter 4 j i $end
$scope module ff $end
$var wire 1 $ clk $end
$var wire 1 k d $end
$var reg 1 l q $end
$upscope $end
$upscope $end
$upscope $end
$scope module r2 $end
$var wire 1 $ clk $end
$var wire 8 m d [7:0] $end
$var wire 8 n q [7:0] $end
$var parameter 32 o N $end
$scope begin d_flip_flop[0] $end
$var parameter 2 p i $end
$scope module ff $end
$var wire 1 $ clk $end
$var wire 1 q d $end
$var reg 1 r q $end
$upscope $end
$upscope $end
$scope begin d_flip_flop[1] $end
$var parameter 2 s i $end
$scope module ff $end
$var wire 1 $ clk $end
$var wire 1 t d $end
$var reg 1 u q $end
$upscope $end
$upscope $end
$scope begin d_flip_flop[2] $end
$var parameter 3 v i $end
$scope module ff $end
$var wire 1 $ clk $end
$var wire 1 w d $end
$var reg 1 x q $end
$upscope $end
$upscope $end
$scope begin d_flip_flop[3] $end
$var parameter 3 y i $end
$scope module ff $end
$var wire 1 $ clk $end
$var wire 1 z d $end
$var reg 1 { q $end
$upscope $end
$upscope $end
$scope begin d_flip_flop[4] $end
$var parameter 4 | i $end
$scope module ff $end
$var wire 1 $ clk $end
$var wire 1 } d $end
$var reg 1 ~ q $end
$upscope $end
$upscope $end
$scope begin d_flip_flop[5] $end
$var parameter 4 !" i $end
$scope module ff $end
$var wire 1 $ clk $end
$var wire 1 "" d $end
$var reg 1 #" q $end
$upscope $end
$upscope $end
$scope begin d_flip_flop[6] $end
$var parameter 4 $" i $end
$scope module ff $end
$var wire 1 $ clk $end
$var wire 1 %" d $end
$var reg 1 &" q $end
$upscope $end
$upscope $end
$scope begin d_flip_flop[7] $end
$var parameter 4 '" i $end
$scope module ff $end
$var wire 1 $ clk $end
$var wire 1 (" d $end
$var reg 1 )" q $end
$upscope $end
$upscope $end
$upscope $end
$scope module u1 $end
$var wire 3 *" a [2:0] $end
$var wire 1 +" en $end
$var reg 8 ," d [7:0] $end
$upscope $end
$scope module u10 $end
$var wire 8 -" A [7:0] $end
$var wire 8 ." B [7:0] $end
$var reg 8 /" S [7:0] $end
$upscope $end
$scope module u11 $end
$var wire 8 0" a [7:0] $end
$var wire 1 1" en $end
$var wire 8 2" out [7:0] $end
$upscope $end
$scope module u12 $end
$var wire 8 3" A [7:0] $end
$var wire 8 4" B [7:0] $end
$var reg 8 5" S [7:0] $end
$upscope $end
$scope module u13 $end
$var wire 8 6" a [7:0] $end
$var wire 1 7" en $end
$var wire 8 8" out [7:0] $end
$upscope $end
$scope module u14 $end
$var wire 8 9" A [7:0] $end
$var wire 8 :" B [7:0] $end
$var reg 8 ;" S [7:0] $end
$upscope $end
$scope module u15 $end
$var wire 8 <" a [7:0] $end
$var wire 1 =" en $end
$var wire 8 >" out [7:0] $end
$upscope $end
$scope module u16 $end
$var wire 8 ?" A [7:0] $end
$var wire 8 @" B [7:0] $end
$var reg 8 A" S [7:0] $end
$upscope $end
$scope module u17 $end
$var wire 8 B" a [7:0] $end
$var wire 1 C" en $end
$var wire 8 D" out [7:0] $end
$upscope $end
$scope module u2 $end
$var wire 8 E" A [7:0] $end
$var wire 8 F" B [7:0] $end
$var wire 9 G" S [8:0] $end
$var wire 8 H" C [7:0] $end
$scope module soma1 $end
$var wire 1 I" A $end
$var wire 1 J" B $end
$var wire 1 K" C $end
$var wire 1 L" S $end
$upscope $end
$scope module soma2 $end
$var wire 1 M" A $end
$var wire 1 N" B $end
$var wire 1 O" Cin $end
$var wire 1 P" Cout $end
$var wire 1 Q" S $end
$upscope $end
$scope module soma3 $end
$var wire 1 R" A $end
$var wire 1 S" B $end
$var wire 1 T" Cin $end
$var wire 1 U" Cout $end
$var wire 1 V" S $end
$upscope $end
$scope module soma4 $end
$var wire 1 W" A $end
$var wire 1 X" B $end
$var wire 1 Y" Cin $end
$var wire 1 Z" Cout $end
$var wire 1 [" S $end
$upscope $end
$scope module soma5 $end
$var wire 1 \" A $end
$var wire 1 ]" B $end
$var wire 1 ^" Cin $end
$var wire 1 _" Cout $end
$var wire 1 `" S $end
$upscope $end
$scope module soma6 $end
$var wire 1 a" A $end
$var wire 1 b" B $end
$var wire 1 c" Cin $end
$var wire 1 d" Cout $end
$var wire 1 e" S $end
$upscope $end
$scope module soma7 $end
$var wire 1 f" A $end
$var wire 1 g" B $end
$var wire 1 h" Cin $end
$var wire 1 i" Cout $end
$var wire 1 j" S $end
$upscope $end
$scope module soma8 $end
$var wire 1 k" A $end
$var wire 1 l" B $end
$var wire 1 m" Cin $end
$var wire 1 n" Cout $end
$var wire 1 o" S $end
$upscope $end
$upscope $end
$scope module u3 $end
$var wire 8 p" a [7:0] $end
$var wire 1 q" en $end
$var wire 8 r" out [7:0] $end
$upscope $end
$scope module u4 $end
$var wire 8 s" A [7:0] $end
$var wire 8 t" B [7:0] $end
$var wire 9 u" S [8:0] $end
$var wire 8 v" C [7:0] $end
$scope module soma1 $end
$var wire 1 w" A $end
$var wire 1 x" B $end
$var wire 1 y" C $end
$var wire 1 z" S $end
$upscope $end
$scope module soma2 $end
$var wire 1 {" A $end
$var wire 1 |" B $end
$var wire 1 }" Cin $end
$var wire 1 ~" Cout $end
$var wire 1 !# S $end
$upscope $end
$scope module soma3 $end
$var wire 1 "# A $end
$var wire 1 ## B $end
$var wire 1 $# Cin $end
$var wire 1 %# Cout $end
$var wire 1 &# S $end
$upscope $end
$scope module soma4 $end
$var wire 1 '# A $end
$var wire 1 (# B $end
$var wire 1 )# Cin $end
$var wire 1 *# Cout $end
$var wire 1 +# S $end
$upscope $end
$scope module soma5 $end
$var wire 1 ,# A $end
$var wire 1 -# B $end
$var wire 1 .# Cin $end
$var wire 1 /# Cout $end
$var wire 1 0# S $end
$upscope $end
$scope module soma6 $end
$var wire 1 1# A $end
$var wire 1 2# B $end
$var wire 1 3# Cin $end
$var wire 1 4# Cout $end
$var wire 1 5# S $end
$upscope $end
$scope module soma7 $end
$var wire 1 6# A $end
$var wire 1 7# B $end
$var wire 1 8# Cin $end
$var wire 1 9# Cout $end
$var wire 1 :# S $end
$upscope $end
$scope module soma8 $end
$var wire 1 ;# A $end
$var wire 1 <# B $end
$var wire 1 =# Cin $end
$var wire 1 ># Cout $end
$var wire 1 ?# S $end
$upscope $end
$upscope $end
$scope module u5 $end
$var wire 8 @# a [7:0] $end
$var wire 1 A# en $end
$var wire 8 B# out [7:0] $end
$upscope $end
$scope module u6 $end
$var wire 8 C# A [7:0] $end
$var wire 8 D# S [7:0] $end
$upscope $end
$scope module u7 $end
$var wire 8 E# a [7:0] $end
$var wire 1 F# en $end
$var wire 8 G# out [7:0] $end
$upscope $end
$scope module u8 $end
$var wire 8 H# B [7:0] $end
$var wire 8 I# S [7:0] $end
$upscope $end
$scope module u9 $end
$var wire 8 J# a [7:0] $end
$var wire 1 K# en $end
$var wire 8 L# out [7:0] $end
$upscope $end
$upscope $end
$upscope $end
$enddefinitions $end
$comment Show the parameter values. $end
$dumpall
b111 '"
b110 $"
b101 !"
b100 |
b11 y
b10 v
b1 s
b0 p
b1000 o
b111 j
b110 g
b101 d
b100 a
b11 ^
b10 [
b1 X
b0 U
b1000 T
b111 O
b110 L
b101 I
b100 F
b11 C
b10 @
b1 =
b0 :
b1000 9
$end
#0
$dumpvars
b0 L#
0K#
b11111111 J#
b11111111 I#
b0 H#
b0 G#
0F#
b11111111 E#
b11111111 D#
b0 C#
b0 B#
0A#
b0 @#
0?#
0>#
0=#
0<#
0;#
0:#
09#
08#
07#
06#
05#
04#
03#
02#
01#
00#
0/#
0.#
0-#
0,#
0+#
0*#
0)#
0(#
0'#
0&#
0%#
0$#
0##
0"#
0!#
0~"
0}"
0|"
0{"
0z"
0y"
0x"
0w"
bz0000000 v"
b0 u"
b0 t"
b0 s"
b0 r"
1q"
b0 p"
0o"
0n"
0m"
0l"
0k"
0j"
0i"
0h"
0g"
0f"
0e"
0d"
0c"
0b"
0a"
0`"
0_"
0^"
0]"
0\"
0["
0Z"
0Y"
0X"
0W"
0V"
0U"
0T"
0S"
0R"
0Q"
0P"
0O"
0N"
0M"
0L"
0K"
0J"
0I"
bz0000000 H"
b0 G"
b0 F"
b0 E"
b0 D"
0C"
b0 B"
b0 A"
b0 @"
b0 ?"
b0 >"
0="
b0 <"
b0 ;"
b0 :"
b0 9"
b0 8"
07"
b0 6"
b0 5"
b0 4"
b0 3"
b0 2"
01"
b1 0"
b1 /"
b0 ."
b0 -"
b1 ,"
1+"
b0 *"
x)"
0("
x&"
0%"
x#"
0""
x~
0}
x{
0z
xx
0w
xu
0t
xr
0q
bx n
b0 m
0l
0k
0i
0h
0f
0e
0c
0b
0`
0_
0]
0\
0Z
0Y
0W
0V
b0 S
b0 R
0Q
0P
0N
0M
0K
0J
0H
0G
0E
0D
0B
0A
0?
0>
0<
0;
b0 8
b0 7
bx 6
b1 5
b0 4
b1 3
b11111111 2
b11111111 1
b0 0
b0 /
b0 .
b0 -
b0 ,
b0 +
0*
b0 )
b0 (
b0 '
b0 &
b0 %
0$
b0 #
b0 "
bx !
$end
#2000
1$
#4000
0)"
0&"
0#"
0~
0{
0x
0u
b0 !
b0 6
b0 n
0r
0$
#6000
1$
#8000
0$
#10000
1$
#12000
0$
#14000
1$
#16000
0$
#18000
1$
#20000
1t
b10 )
b10 m
b10 2"
b10 8"
b10 >"
b10 D"
b10 r"
b10 B#
b10 G#
b10 L#
b10 .
b10 p"
b10 G"
1Q"
1O"
bz0000001 H"
1K"
1J"
1x"
b11111110 1
b11111110 I#
b11111110 J#
1I"
1w"
b11111110 2
b11111110 D#
b11111110 E#
b1 +
b1 S
b1 ."
b1 4"
b1 :"
b1 @"
b1 F"
b1 t"
b1 H#
1W
b1 ,
b1 8
b1 -"
b1 3"
b1 9"
b1 ?"
b1 E"
b1 s"
b1 C#
1<
1V
1;
0$
b1 #
b1 '
b1 R
b1 "
b1 &
b1 7
#22000
1$
#24000
b10 !
b10 6
b10 n
1u
0$
#26000
1$
#28000
0$
#30000
1$
#32000
0$
#34000
1$
#36000
0$
#38000
1$
#40000
0`"
0^"
0Z"
0Y"
0U"
1q
0w
1z
1$#
1}"
0T"
1~"
b1111 .
b1111 p"
0O"
b1001 -
b1001 @#
bz0000011 v"
1y"
1V"
0&#
1["
1+#
1Q"
0P"
0!#
b1111 G"
1L"
bz0000000 H"
0K"
b1001 u"
1z"
0I"
0w"
1R"
1"#
1W"
1'#
b11110011 2
b11110011 D#
b11110011 E#
1N"
1|"
b11111100 1
b11111100 I#
b11111100 J#
b11 /
b11 A"
b11 B"
b1100 0
b1100 ;"
b1100 <"
b1 4
b1 5"
b1 6"
b0 3
b0 /"
b0 0"
0<
1B
b1100 ,
b1100 8
b1100 -"
b1100 3"
b1100 9"
b1100 ?"
b1100 E"
b1100 s"
b1100 C#
1E
b11 +
b11 S
b11 ."
b11 4"
b11 :"
b11 @"
b11 F"
b11 t"
b11 H#
1Z
0t
b1001 )
b1001 m
b1001 2"
b1001 8"
b1001 >"
b1001 D"
b1001 r"
b1001 B#
b1001 G#
b1001 L#
1A#
0q"
b10 5
b10 ,"
1Y
0;
1A
1D
0$
b1 %
b1 (
b1 *"
b11 #
b11 '
b11 R
b1100 "
b1100 &
b1100 7
#42000
1$
#44000
1{
0u
b1001 !
b1001 6
b1001 n
1r
0$
#46000
1$
#48000
0$
#50000
1$
#52000
0$
#54000
1$
#56000
0$
#58000
1$
#60000
1&#
0$#
1!#
b11111111 .
b11111111 p"
b11111111 -
b11111111 @#
0~"
0}"
1o"
1?#
1j"
1:#
1e"
15#
b11111111 G"
1`"
b11111111 u"
10#
0q
bz0000000 v"
0y"
0N"
0|"
0J"
0x"
b11111111 1
b11111111 I#
b11111111 J#
1k"
1;#
1f"
16#
1a"
11#
1\"
1,#
1M"
1{"
1I"
1w"
b0 2
b0 D#
b0 E#
b11111111 0
b11111111 ;"
b11111111 <"
b0 /
b0 A"
b0 B"
0Z
b0 +
b0 S
b0 ."
b0 4"
b0 :"
b0 @"
b0 F"
b0 t"
b0 H#
0W
1Q
1N
1K
1H
1?
b11111111 ,
b11111111 8
b11111111 -"
b11111111 3"
b11111111 9"
b11111111 ?"
b11111111 E"
b11111111 s"
b11111111 C#
1<
0t
0z
0}
0""
0%"
0("
b0 )
b0 m
b0 2"
b0 8"
b0 >"
b0 D"
b0 r"
b0 B#
b0 G#
b0 L#
1F#
0A#
b100 5
b100 ,"
0V
0Y
1;
1>
1G
1J
1M
1P
0$
b10 %
b10 (
b10 *"
b0 #
b0 '
b0 R
b11111111 "
b11111111 &
b11111111 7
#62000
1$
#64000
0r
b0 !
b0 6
b0 n
0{
0$
#66000
1$
#68000
0$
#70000
1$
#72000
0$
#74000
1$
#76000
0$
#78000
1$
#80000
b0 .
b0 p"
b0 -
b0 @#
0Q"
0!#
0V"
0&#
0["
0+#
0`"
00#
0e"
05#
0j"
0:#
0o"
0?#
b0 G"
0L"
b0 u"
0z"
0I"
0w"
0M"
0{"
0R"
0"#
0W"
0'#
0\"
0,#
0a"
01#
0f"
06#
0k"
0;#
b11111111 2
b11111111 D#
b11111111 E#
b0 0
b0 ;"
b0 <"
b0 4
b0 5"
b0 6"
b1 3
b1 /"
b1 0"
0<
0?
0B
0E
0H
0K
0N
b0 ,
b0 8
b0 -"
b0 3"
b0 9"
b0 ?"
b0 E"
b0 s"
b0 C#
0Q
1q
1t
1w
1z
1}
1""
1%"
1("
b11111111 )
b11111111 m
b11111111 2"
b11111111 8"
b11111111 >"
b11111111 D"
b11111111 r"
b11111111 B#
b11111111 G#
b11111111 L#
1K#
0F#
b1000 5
b1000 ,"
0;
0>
0A
0D
0G
0J
0M
0P
0$
b11 %
b11 (
b11 *"
b0 "
b0 &
b0 7
#82000
1$
#84000
1)"
1&"
1#"
1~
1{
1x
1u
b11111111 !
b11111111 6
b11111111 n
1r
0$
#86000
1$
#88000
0$
#90000
1$
#92000
0$
#94000
1$
#96000
0$
#98000
1$
#100000
0t
0w
0z
0}
0""
0%"
0("
b1 )
b1 m
b1 2"
b1 8"
b1 >"
b1 D"
b1 r"
b1 B#
b1 G#
b1 L#
11"
0K#
b10000 5
b10000 ,"
0$
b100 %
b100 (
b100 *"
#102000
1$
#104000
0u
0x
0{
0~
0#"
0&"
b1 !
b1 6
b1 n
0)"
0$
#106000
1$
#108000
0$
#110000
1$
#112000
0$
#114000
1$
#116000
0$
#118000
1$
#120000
0*
0>#
0?#
0=#
09#
0:#
08#
04#
05#
03#
0/#
00#
0.#
0*#
0+#
0)#
0%#
1V"
0&#
1T"
0$#
bz0000010 H"
1P"
bz0000000 v"
0~"
b101 .
b101 p"
b1 -
b1 @#
b101 G"
1L"
b1 u"
1z"
1I"
1w"
1M"
1{"
b11111100 2
b11111100 D#
b11111100 E#
1N"
1|"
b11111101 1
b11111101 I#
b11111101 J#
b0 3
b0 /"
b0 0"
b1 4
b1 5"
b1 6"
b11 0
b11 ;"
b11 <"
b10 /
b10 A"
b10 B"
1<
b11 ,
b11 8
b11 -"
b11 3"
b11 9"
b11 ?"
b11 E"
b11 s"
b11 C#
1?
b10 +
b10 S
b10 ."
b10 4"
b10 :"
b10 @"
b10 F"
b10 t"
b10 H#
1Z
1q
b1 )
b1 m
b1 2"
b1 8"
b1 >"
b1 D"
b1 r"
b1 B#
b1 G#
b1 L#
17"
01"
b100000 5
b100000 ,"
1Y
1;
1>
0$
b101 %
b101 (
b101 *"
b10 #
b10 '
b10 R
b11 "
b11 &
b11 7
#122000
1$
#124000
0$
#126000
1$
#128000
0$
#130000
1$
#132000
0$
#134000
1$
#136000
0$
#138000
1$
#140000
1t
b11 )
b11 m
b11 2"
b11 8"
b11 >"
b11 D"
b11 r"
b11 B#
b11 G#
b11 L#
1="
07"
b1000000 5
b1000000 ,"
0$
b110 %
b110 (
b110 *"
#142000
1$
#144000
b11 !
b11 6
b11 n
1u
0$
#146000
1$
#148000
0$
#150000
1$
#152000
0$
#154000
1$
#156000
0$
#158000
1$
#160000
x*
1>#
1?#
1=#
19#
1:#
18#
14#
15#
13#
1/#
10#
1.#
1*#
1+#
1)#
1%#
1&#
1$#
1~"
b11111111 -
b11111111 @#
b111111111 u"
1!#
1}"
bz1111111 v"
1y"
0I"
0w"
b11111101 2
b11111101 D#
b11111101 E#
1J"
1x"
b11111100 1
b11111100 I#
b11111100 J#
b10 ,
b10 8
b10 -"
b10 3"
b10 9"
b10 ?"
b10 E"
b10 s"
b10 C#
0<
b11 +
b11 S
b11 ."
b11 4"
b11 :"
b11 @"
b11 F"
b11 t"
b11 H#
1W
0q
b10 )
b10 m
b10 2"
b10 8"
b10 >"
b10 D"
b10 r"
b10 B#
b10 G#
b10 L#
1C"
0="
b10000000 5
b10000000 ,"
1V
0;
0$
b111 %
b111 (
b111 *"
b11 #
b11 '
b11 R
b10 "
b10 &
b10 7
#162000
1$
#164000
b10 !
b10 6
b10 n
0r
0$
